{
	"authHost": "http://swftea.xyz",
	"authEndpoint": "/broadcasting/auth",
	"clients": [],
	"database": "redis",
	"databaseConfig": {
		"redis": {
			"port":"6379",
			"host":"127.0.0.1",
			"db":"0",
			"password":"7B29F320E5960389D97ED119BF6FEEF77B29F320E5960389D97ED119BF6FEEF77B29F320E5960389D97ED119BF6FEEF77B29F320E5960389D97ED119BF6FEEF7"
		},
		"sqlite": {
			"databasePath": "/database/laravel-echo-server.sqlite"
		}
	},
	"devMode": true,
	"host": null,
	"port": "6001",
	"protocol": "http",
	"socketio": {},
	"secureOptions": 67108864,
	"sslCertPath": "",
	"sslKeyPath": "",
	"sslCertChainPath": "",
	"sslPassphrase": "",
	"subscribers": {
		"http": true,
		"redis": true
	},
	"apiOriginAllow": {
		"allowCors": false,
		"allowOrigin": "",
		"allowMethods": "",
		"allowHeaders": ""
	}
}
